{
  "type": "service_account",
  "project_id": "fife-app",
  "private_key_id": "23eb969aeb4e4d7a21248434f09cc5ff816a49b4",
  "private_key": "-----BEGIN PRIVATE KEY-----\nMIIEvQIBADANBgkqhkiG9w0BAQEFAASCBKcwggSjAgEAAoIBAQDOT4HG0zuprWry\nDK3oe94o6OZ7/4WSnAeg4qwQMksZbP/sQEPfeCPXPPwot/ywe+W7Rpvpl81NoWD8\nYJ1keS511911lgzzYjEmVtStkqzLOIQh/U6nV7/5Z/P1uY7KVOutAe755szmYgu6\nC8YMf38T+iiUs5mDmmfUDTxNpNKv2lmvnhacSkM1JkR9D9yhfHfokjDMcSPiw4Qg\nO3bh5jfErm10fKgxwv4epZIxujsk/WiNfaphZDo5PJJq8OBHKhLL3Iu2p3Bq2DzM\n9cSnOPCWwkAd69A/Q9ISla+lmzHpuM/8rALwrfCwNyIxedBE3mlhPIR4jxXbLTjw\nGHR3lMDNAgMBAAECggEAC0xp+4tuIFZwENRzIiD442QQQOjKYsnEiZUp8VmHwls1\nT5w1yCm9fYtuwp4c3d9swksiI79Qzet3svdpkNFc7+g3NFOk3uyMOFP+CFY/IoJn\niuL8wtTFg/4JuFw5C5Y6yyB1exGFCPYd1Uqd+U/Y+kbNBr1bojKIQbuXbcGIJkgy\nKNWDEL7aeN8HKKi5EaPosL+/pWnL9nGjKpna1Z5h2kWd7DUwHCt8JbbcsS6z9sI1\ne5VoE+xVSNJBOpLhdrfUxSKlcVb4Pp/Z+aWs215873vhr1roHMpRZ40h+DqcguCK\ntHrq0aRwuAgwZzEIkjMqqXtd6eW1mvef0OB0HXLlcwKBgQD/e29GaI0XSroQOr/k\njA2IJfwYBXoVXYJx9baT5nNw7k2kvHpitW7H97NFT1XwppYbbMdiBJwY9C/GKYYg\nKBiZSv+R7mWWzw2MLwfRkstNaTY2654sCODyHaGe1Kipu+OmmzuiUsaxwxKdLwK/\nbosMs5G7XjktvLz1B+0ee2coZwKBgQDOuo7XSbTTNFiWSOWs7ABDZrbZu+KJoqJA\n3HbgH7eLkWDgjfX3W2P1lkBwTVx/r2LBOjZU723vs15oH+KtWSD9NhGGIFwK3hG0\nAx4b+b+tb88DptoxmrShWvLNPI2CMDm4RpUup7MNKdWUUy7vdCmhmvwI1+K4bmiI\n29T1mcKcqwKBgQDwryvErAiHsemaEo7nVB4HbqmRQ8+gwyh6Dd8EdO26rXZORRYT\nWhPUpYGpQTWYcoglrBQmPmuEgr9jM4ldUAjkmagtpebk7Yk40LHP+Tg4ZG8jzFOF\n7pNk5Q9236dJyG2Obt3+bXcszrcBh+FR0WWEAMPBPeImOZHWUbJMrjsf7wKBgENM\nemndpc9H8Drkelij76YBjy8suh/iYP3Kh6yIxsDZz/bqYBNpng36HvowRReQKg8L\ne1qFI33wH6C4GJwkMtgbvPK0ICKtjofSp/+le1/j0Tm4HLofSgRpTjfAKbUjK/cw\niypID8MORmhl+Bad81uXz8q1NSqjTsaXAin+J1vHAoGAas6VtIoSNaeGddsTNWJN\nu6l2JvkjPdIzlqk2bmYJmbaPORnPywsr7/vmHET9DjvEKBiLhGLFJ+Te7Xo6Xr1G\nWmGeW+aPgpqSCVj2dtYlQZKsfATNeGkImgUGoi1f1PM5pmNAe342fiAsUqUeA4Aw\n0L/jOQS1QPvr5GzKXUhLS54=\n-----END PRIVATE KEY-----\n",
  "client_email": "firebase-adminsdk-cgi8x@fife-app.iam.gserviceaccount.com",
  "client_id": "105762289355962831892",
  "auth_uri": "https://accounts.google.com/o/oauth2/auth",
  "token_uri": "https://oauth2.googleapis.com/token",
  "auth_provider_x509_cert_url": "https://www.googleapis.com/oauth2/v1/certs",
  "client_x509_cert_url": "https://www.googleapis.com/robot/v1/metadata/x509/firebase-adminsdk-cgi8x%40fife-app.iam.gserviceaccount.com"
}
